<?xml version="1.0" encoding="utf-8"?>
<!-- Generator: Adobe Illustrator 12.0.0, SVG Export Plug-In . SVG Version: 6.00 Build 51448)  -->
<!DOCTYPE svg PUBLIC "-//W3C//DTD SVG 1.0//EN" "http://www.w3.org/TR/2001/REC-SVG-20010904/DTD/svg10.dtd" [
	<!ENTITY ns_svg "http://www.w3.org/2000/svg">
	<!ENTITY ns_xlink "http://www.w3.org/1999/xlink">
]>
<svg  version="1.0" id="Layer_1" xmlns="&ns_svg;" xmlns:xlink="&ns_xlink;" width="48.516" height="77.316"
	 viewBox="0 0 48.516 77.316" overflow="visible" enable-background="new 0 0 48.516 77.316" xml:space="preserve">
<g>
	<g>
		<path fill="#FFFFFF" d="M24.587,38.37c-10.754,0-19.473,8.719-19.473,19.473c0,10.755,8.719,19.473,19.473,19.473
			S44.06,68.598,44.06,57.843C44.06,47.089,35.341,38.37,24.587,38.37L24.587,38.37z M24.587,74.316
			c-9.083,0-16.473-7.39-16.473-16.473s7.39-16.473,16.473-16.473S41.06,48.76,41.06,57.843S33.67,74.316,24.587,74.316
			L24.587,74.316z"/>
	</g>
	<polygon fill="#FFFFFF" points="30.107,34.178 18.408,34.178 0,0 11.699,0 	"/>
	<polygon fill="#FFFFFF" points="32.479,29.775 48.516,0 36.816,0 26.629,18.913 	"/>
	<g>
		<path fill="#FFFFFF" d="M19.329,66.423V48.517h3.609v17.906H19.329z"/>
		<path fill="#FFFFFF" d="M26.274,66.423V48.517h3.609v17.906H26.274z"/>
	</g>
</g>
</svg>
