<?xml version="1.0" encoding="utf-8"?>
<!-- Generator: Adobe Illustrator 12.0.0, SVG Export Plug-In . SVG Version: 6.00 Build 51448)  -->
<!DOCTYPE svg PUBLIC "-//W3C//DTD SVG 1.0//EN" "http://www.w3.org/TR/2001/REC-SVG-20010904/DTD/svg10.dtd" [
	<!ENTITY ns_svg "http://www.w3.org/2000/svg">
	<!ENTITY ns_xlink "http://www.w3.org/1999/xlink">
]>
<svg  version="1.0" id="Layer_1" xmlns="&ns_svg;" xmlns:xlink="&ns_xlink;" width="66.207" height="66.518"
	 viewBox="0 0 66.207 66.518" overflow="visible" enable-background="new 0 0 66.207 66.518" xml:space="preserve">
<path fill="#666666" d="M49.693,6.518H39.256v7.431H27.228V6.518h-16.92C4.615,6.518,0,11.131,0,16.825v39.384
	c0,5.693,4.615,10.309,10.308,10.309h39.384C55.384,66.518,60,61.902,60,56.209V16.825C60,11.131,55.386,6.518,49.693,6.518z"/>
<path fill="#B2B2B2" d="M55.898,0.5H16.513c-5.407,0-9.807,4.398-9.807,9.807v39.385c0,5.409,4.399,9.81,9.807,9.81h39.385
	c5.408,0,9.809-4.4,9.809-9.81V10.307C65.707,4.9,61.307,0.5,55.898,0.5z M36.772,9.823c0,0.85-0.688,1.539-1.541,1.539h-3.799
	c-0.85,0-1.539-0.688-1.539-1.539V6.023c0-0.85,0.689-1.54,1.539-1.54h3.799c0.853,0,1.541,0.689,1.541,1.54V9.823z"/>
<rect x="17.868" y="0.158" width="1.938" height="6.367"/>
<rect x="21.743" y="0.158" width="1.939" height="6.367"/>
<rect x="48.919" y="53.063" width="1.938" height="6.368"/>
<rect x="52.794" y="53.063" width="1.938" height="6.368"/>
<polygon fill="#666666" points="37.403,25.738 36.054,30.772 31.021,32.122 27.334,28.436 28.683,23.401 33.718,22.052 "/>
<path fill="#D1D1D1" d="M31.341,21.56c-0.125,0.468-1.073,4.008-1.199,4.478c0.343,0.343,2.936,2.935,3.278,3.277
	c0.469-0.125,4.007-1.073,4.476-1.199c0.126-0.469,1.074-4.01,1.2-4.478c-0.343-0.343-2.935-2.935-3.277-3.278
	C35.35,20.485,31.81,21.434,31.341,21.56z"/>
<path fill="#666666" d="M35.966,19.802l-5.034,1.35l-1.348,5.034l3.686,3.687l5.033-1.35l1.351-5.035L35.966,19.802L35.966,19.802z
	 M31.749,21.969l3.918-1.051l2.869,2.869l-1.051,3.92l-3.918,1.05l-2.869-2.87L31.749,21.969L31.749,21.969z"/>
<polygon fill="#666666" points="35.412,21.883 32.457,22.675 32.253,23.434 34.449,22.845 36.61,25.007 36.022,27.202 36.78,26.999 
	37.572,24.045 "/>
<polygon fill="#666666" points="61.417,44.582 60.067,49.617 55.033,50.966 51.347,47.281 52.696,42.246 57.731,40.896 "/>
<path fill="#D1D1D1" d="M55.354,40.404c-0.126,0.469-1.074,4.009-1.2,4.478c0.344,0.343,2.936,2.935,3.278,3.278
	c0.469-0.125,4.008-1.074,4.478-1.2c0.125-0.468,1.073-4.009,1.199-4.478c-0.343-0.343-2.936-2.935-3.277-3.277
	C59.363,39.329,55.824,40.278,55.354,40.404z"/>
<path fill="#666666" d="M59.98,38.646l-5.034,1.351l-1.351,5.034l3.688,3.686l5.033-1.349l1.352-5.035L59.98,38.646L59.98,38.646z
	 M55.763,40.813l3.92-1.051l2.869,2.869L61.5,46.55l-3.918,1.05l-2.871-2.869L55.763,40.813L55.763,40.813z"/>
<polygon fill="#666666" points="59.423,40.728 56.47,41.519 56.267,42.278 58.462,41.689 60.625,43.852 60.037,46.046 
	60.794,45.843 61.585,42.89 "/>
<polygon fill="#666666" points="33.268,51.244 31.919,56.279 26.884,57.628 23.198,53.942 24.548,48.908 29.582,47.558 "/>
<path fill="#D1D1D1" d="M27.206,47.066c-0.126,0.469-1.074,4.009-1.2,4.478c0.343,0.343,2.935,2.935,3.277,3.277
	c0.469-0.125,4.009-1.073,4.478-1.199c0.125-0.47,1.072-4.01,1.199-4.478c-0.344-0.343-2.936-2.935-3.277-3.277
	C31.214,45.991,27.675,46.94,27.206,47.066z"/>
<path fill="#666666" d="M31.832,45.309l-5.034,1.35l-1.35,5.033l3.685,3.687l5.037-1.35l1.348-5.033L31.832,45.309L31.832,45.309z
	 M27.614,47.475l3.919-1.05l2.868,2.869l-1.049,3.919l-3.921,1.05l-2.868-2.869L27.614,47.475L27.614,47.475z"/>
<polygon fill="#666666" points="31.274,47.39 28.321,48.181 28.118,48.94 30.313,48.352 32.476,50.514 31.887,52.708 32.646,52.505 
	33.437,49.552 "/>
<path fill="#666666" d="M59.164,8.422c4.69,4.688,4.692,12.296,0,16.988c-4.691,4.693-12.301,4.691-16.99,0.002
	c-4.691-4.694-4.691-12.3,0-16.992C46.867,3.729,54.472,3.729,59.164,8.422z"/>
<circle fill="#D1D1D1" cx="51.186" cy="15.36" r="12.014"/>
<path fill="#54D3D6" d="M58.421,8.125c3.994,3.996,3.994,10.476,0,14.472c-3.996,3.994-10.473,3.991-14.469-0.004
	c-3.994-3.995-3.994-10.469,0-14.464C47.949,4.134,54.425,4.13,58.421,8.125z"/>
<path fill="#24A8A8" d="M59.613,20.765c-3.994,3.995-10.471,3.993-14.466-0.002c-3.217-3.216-3.838-8.035-1.879-11.879
	c-3.293,4.02-3.065,9.959,0.685,13.709c3.995,3.995,10.473,3.998,14.469,0.004c0.779-0.781,1.402-1.657,1.877-2.589
	C60.083,20.269,59.857,20.52,59.613,20.765z"/>
<circle fill="#FFFFFF" cx="55.947" cy="9.176" r="1.274"/>
<polygon fill="#666666" points="27.786,38.148 25.347,47.246 16.251,49.684 9.589,43.023 12.027,33.926 21.126,31.487 "/>
<path fill="#D1D1D1" d="M15.012,31.758c-0.136,0.507-2.153,8.032-2.289,8.539c0.372,0.372,5.883,5.881,6.254,6.253
	c0.508-0.136,8.03-2.153,8.538-2.289c0.136-0.507,2.154-8.033,2.29-8.541c-0.372-0.372-5.881-5.881-6.252-6.252
	C23.045,29.604,15.519,31.622,15.012,31.758z"/>
<path fill="#666666" d="M23.702,28.911l-9.1,2.438l-2.438,9.098l6.662,6.66l9.096-2.438l2.439-9.098L23.702,28.911L23.702,28.911z
	 M15.419,32.167l7.984-2.141l5.843,5.845l-2.14,7.982l-7.981,2.14l-5.845-5.845L15.419,32.167L15.419,32.167z"/>
<path fill="#D1D1D1" d="M17.987,34.732c-0.126,0.469-1.074,4.009-1.2,4.478c0.343,0.343,2.935,2.935,3.277,3.277
	c0.469-0.125,4.009-1.073,4.478-1.199c0.125-0.47,1.073-4.01,1.199-4.478c-0.343-0.343-2.935-2.935-3.277-3.277
	C21.995,33.658,18.456,34.607,17.987,34.732z"/>
<path fill="#666666" d="M22.613,32.975l-5.034,1.351l-1.351,5.033l3.687,3.687l5.035-1.35l1.348-5.034L22.613,32.975L22.613,32.975z
	 M18.396,35.142l3.919-1.051l2.868,2.869l-1.05,3.92l-3.919,1.05l-2.869-2.869L18.396,35.142L18.396,35.142z"/>
<polygon fill="#666666" points="22.056,35.056 19.103,35.848 18.899,36.606 21.095,36.018 23.257,38.18 22.668,40.375 
	23.427,40.172 24.218,37.218 "/>
<polygon fill="#666666" points="24.95,41.695 27.923,44.669 18.827,47.107 12.165,40.446 14.604,31.35 17.579,34.324 16.229,39.358 
	19.915,43.044 "/>
<polygon fill="#666666" points="49.626,38.148 47.188,47.246 38.091,49.684 31.431,43.023 33.869,33.926 42.966,31.487 "/>
<path fill="#D1D1D1" d="M36.853,31.758c-0.137,0.507-2.152,8.032-2.288,8.539c0.371,0.372,5.882,5.881,6.253,6.253
	c0.508-0.136,8.031-2.153,8.539-2.289c0.137-0.507,2.152-8.033,2.289-8.541c-0.371-0.372-5.881-5.881-6.252-6.252
	C44.886,29.604,37.36,31.622,36.853,31.758z"/>
<path fill="#666666" d="M45.542,28.911l-9.099,2.438l-2.438,9.098l6.662,6.66l9.097-2.438l2.438-9.098L45.542,28.911L45.542,28.911z
	 M37.261,32.167l7.982-2.141l5.844,5.845l-2.141,7.982l-7.98,2.14l-5.846-5.845L37.261,32.167L37.261,32.167z"/>
<path fill="#D1D1D1" d="M39.828,34.732c-0.125,0.469-1.072,4.009-1.199,4.478c0.344,0.343,2.936,2.935,3.277,3.277
	c0.469-0.125,4.008-1.073,4.477-1.199c0.125-0.47,1.074-4.01,1.199-4.478c-0.343-0.343-2.935-2.935-3.276-3.277
	C43.835,33.658,40.296,34.607,39.828,34.732z"/>
<path fill="#666666" d="M44.455,32.975l-5.035,1.351l-1.349,5.033l3.685,3.687l5.035-1.35l1.349-5.034L44.455,32.975L44.455,32.975z
	 M40.236,35.142l3.919-1.051l2.868,2.869l-1.05,3.92l-3.919,1.05l-2.868-2.869L40.236,35.142L40.236,35.142z"/>
<polygon fill="#666666" points="43.897,35.056 40.944,35.848 40.74,36.606 42.937,36.018 45.098,38.18 44.509,40.375 45.268,40.172 
	46.06,37.218 "/>
<polygon fill="#666666" points="46.791,41.695 49.765,44.669 40.667,47.107 34.007,40.446 36.444,31.35 39.419,34.324 
	38.071,39.358 41.757,43.044 "/>
<polygon fill="#666666" points="27.288,17.427 24.85,26.525 15.753,28.963 9.092,22.302 11.53,13.205 20.628,10.766 "/>
<path fill="#D1D1D1" d="M14.515,11.037c-0.136,0.507-2.153,8.031-2.289,8.539c0.372,0.372,5.882,5.881,6.253,6.253
	c0.508-0.137,8.031-2.153,8.539-2.289c0.136-0.507,2.153-8.033,2.289-8.541c-0.371-0.372-5.881-5.881-6.252-6.252
	C22.547,8.883,15.021,10.901,14.515,11.037z"/>
<path fill="#666666" d="M23.204,8.19l-9.099,2.439l-2.438,9.097l6.661,6.661l9.096-2.438l2.439-9.099L23.204,8.19L23.204,8.19z
	 M14.923,11.445l7.982-2.14l5.843,5.844l-2.14,7.983l-7.981,2.139l-5.844-5.844L14.923,11.445L14.923,11.445z"/>
<path fill="#D1D1D1" d="M17.489,14.011c-0.126,0.468-1.074,4.008-1.2,4.477c0.343,0.344,2.936,2.936,3.278,3.278
	c0.469-0.125,4.008-1.074,4.477-1.2c0.126-0.468,1.074-4.009,1.2-4.477c-0.343-0.343-2.935-2.936-3.277-3.278
	C21.498,12.937,17.958,13.886,17.489,14.011z"/>
<path fill="#666666" d="M22.116,12.254l-5.035,1.349l-1.351,5.035l3.688,3.687l5.034-1.35l1.349-5.035L22.116,12.254L22.116,12.254z
	 M17.897,14.42l3.92-1.05l2.868,2.869l-1.05,3.92l-3.919,1.05l-2.87-2.869L17.897,14.42L17.897,14.42z"/>
<polygon fill="#666666" points="21.559,14.335 18.604,15.126 18.401,15.885 20.597,15.297 22.759,17.459 22.171,19.654 
	22.929,19.451 23.72,16.497 "/>
<polygon fill="#666666" points="24.452,20.974 27.426,23.948 18.329,26.386 11.668,19.725 14.106,10.628 17.081,13.603 
	15.731,18.637 19.418,22.323 "/>
<polygon fill="none" stroke="#047391" points="45.736,17.961 44.24,15.369 45.736,12.777 48.729,12.777 50.226,15.369 
	48.729,17.961 "/>
<polygon fill="none" stroke="#047391" points="50.226,15.369 48.729,12.777 50.226,10.186 53.218,10.186 54.714,12.777 
	53.218,15.369 "/>
<polygon fill="none" stroke="#047391" points="50.226,20.553 48.729,17.961 50.226,15.369 53.218,15.369 54.714,17.961 
	53.218,20.553 "/>
<polygon fill="none" stroke="#047391" points="54.714,17.961 53.218,15.369 54.714,12.777 57.707,12.777 59.203,15.369 
	57.707,17.961 "/>
<path fill="#3F3F3F" d="M55.896,0H16.512C10.821,0,6.206,4.615,6.206,10.307v39.385C6.206,55.385,10.821,60,16.512,60h39.385
	c5.692,0,10.31-4.615,10.31-10.309V10.307C66.207,4.615,61.589,0,55.896,0L55.896,0z M16.512,59c-5.131,0-9.306-4.176-9.306-9.309
	V10.307C7.206,5.175,11.381,1,16.512,1h39.385c5.134,0,9.31,4.175,9.31,9.307v39.385c0,5.133-4.176,9.309-9.31,9.309H16.512
	L16.512,59z"/>
</svg>
