<?xml version="1.0" encoding="utf-8"?>
<!-- Generator: Adobe Illustrator 12.0.0, SVG Export Plug-In . SVG Version: 6.00 Build 51448)  -->
<!DOCTYPE svg PUBLIC "-//W3C//DTD SVG 1.0//EN" "http://www.w3.org/TR/2001/REC-SVG-20010904/DTD/svg10.dtd" [
	<!ENTITY ns_svg "http://www.w3.org/2000/svg">
	<!ENTITY ns_xlink "http://www.w3.org/1999/xlink">
]>
<svg  version="1.0" id="Layer_1" xmlns="&ns_svg;" xmlns:xlink="&ns_xlink;" width="37.5" height="37.5" viewBox="0 0 37.5 37.5"
	 overflow="visible" enable-background="new 0 0 37.5 37.5" xml:space="preserve">
<path fill="none" stroke="#FFFFFF" stroke-width="3" stroke-linecap="round" d="M36,28.276C36,32.542,32.542,36,28.276,36H9.224
	C4.958,36,1.5,32.542,1.5,28.276V9.224C1.5,4.958,4.958,1.5,9.224,1.5h19.053C32.542,1.5,36,4.958,36,9.224V28.276z"/>
</svg>
